\contentsline {figure}{\numberline {1}{\ignorespaces A boat.}}{2}
\contentsline {figure}{\numberline {2}{\ignorespaces Dummy figure}}{2}
\contentsline {figure}{\numberline {3}{\ignorespaces Example graphic made with tikz.}}{3}
