\relax 
\@writefile{toc}{\contentsline {section}{\numberline {1}Section}{2}}
\@writefile{toc}{\contentsline {subsubsection}{\numberline {1.0.1}My section}{2}}
\@writefile{toc}{\contentsline {subsection}{\numberline {1.1}Subsection}{2}}
\@writefile{lof}{\contentsline {figure}{\numberline {1}{\ignorespaces A boat.}}{2}}
\newlabel{fig:boat1}{{1}{2}}
\@writefile{lot}{\contentsline {table}{\numberline {1}{\ignorespaces Dummy table}}{2}}
\@writefile{lof}{\contentsline {figure}{\numberline {2}{\ignorespaces Dummy figure}}{2}}
\@writefile{lof}{\contentsline {figure}{\numberline {3}{\ignorespaces Example graphic made with tikz.}}{3}}
